Playlist Id,Channel Id,Time Created,Time Updated,Title,Description,Visibility
PLOa5qP-zwt209jXYXou8ZOWJpHq1jf4cb,UCqPy_w9DqD38wIM0oIHi9Qg,2015-04-14 18:31:57 UTC,2022-03-26 21:33:50 UTC,me,,Public
,,,,,,
Video Id,Time Added,,,,,
RHnuTsB2TYU,2022-03-26 21:31:44 UTC,,,,,
3s7jiDVxG2w,2022-03-26 21:31:44 UTC,,,,,
MGZGrQtRBt8,2022-03-26 21:31:44 UTC,,,,,
TF9BFc0qrp8,2022-03-26 21:31:44 UTC,,,,,
cp3Fd2e51zI,2022-03-26 21:31:44 UTC,,,,,
FwBZSL6a2aY,2022-03-26 21:31:44 UTC,,,,,
_HWIqSRCUZU,2022-03-26 21:31:44 UTC,,,,,
VbM_WOnDyFM,2022-03-26 21:31:44 UTC,,,,,
r7vyA716-14,2022-03-26 21:31:44 UTC,,,,,
UlEFu5SW1hA,2022-03-26 21:31:44 UTC,,,,,
1-TZboocbPY,2022-03-26 21:31:44 UTC,,,,,
JRUdBRHzLNY,2022-03-26 21:31:44 UTC,,,,,
5pV9zuEaES4,2022-03-26 21:31:44 UTC,,,,,
Y8KCboii0KU,2022-03-26 21:31:44 UTC,,,,,
Kc1dUthLmS4,2022-03-26 21:31:44 UTC,,,,,
rMfP6cj-4Uk,2022-03-26 21:31:44 UTC,,,,,
QWpcolYoud0,2022-03-26 21:31:44 UTC,,,,,
mtXten-t0K8,2022-03-26 21:31:44 UTC,,,,,
Q1JEqUI3ze0,2022-03-26 21:31:44 UTC,,,,,
MCS2L4886ZM,2022-03-26 21:31:44 UTC,,,,,
MXAYEg_BXTE,2022-03-26 21:31:44 UTC,,,,,
avAUxVsdrKM,2022-03-26 21:31:44 UTC,,,,,
XmNlrJNfCR8,2022-03-26 21:31:44 UTC,,,,,
jK6YgMPr8Eg,2022-03-26 21:31:44 UTC,,,,,
N_Q9r0soGng,2022-03-26 21:31:44 UTC,,,,,
ORRHMl3syDM,2022-03-26 21:31:44 UTC,,,,,
VmoBS9AhZIc,2022-03-26 21:31:44 UTC,,,,,
vX0v-1Cu1-o,2022-03-26 21:31:44 UTC,,,,,
Onff8qTdYnw,2022-03-26 21:31:44 UTC,,,,,
vUJoBw0DJwQ,2022-03-26 21:31:44 UTC,,,,,
H9kvbq17RsU,2021-03-27 16:33:11 UTC,,,,,
V6YjbHihP78,2021-02-06 01:14:15 UTC,,,,,
3s7jiDVxG2w,2020-11-21 00:20:26 UTC,,,,,
MGZGrQtRBt8,2020-11-18 05:04:19 UTC,,,,,
cp3Fd2e51zI,2020-11-17 21:57:52 UTC,,,,,
FwBZSL6a2aY,2020-08-25 04:18:24 UTC,,,,,
VbM_WOnDyFM,2020-08-24 03:30:08 UTC,,,,,
RHnuTsB2TYU,2020-08-12 16:46:26 UTC,,,,,
 -tpVXD4D3yA,2020-06-02 17:30:01 UTC,,,,,
Kke2w_JDq60,2020-06-02 16:37:53 UTC,,,,,
pi0bBMDxbs0,2020-05-30 00:58:56 UTC,,,,,
y2FcY6RtkAs,2020-05-29 18:40:43 UTC,,,,,
QWpcolYoud0,2020-03-09 03:14:41 UTC,,,,,
mtXten-t0K8,2020-02-12 04:40:59 UTC,,,,,
Q1JEqUI3ze0,2020-02-12 04:40:59 UTC,,,,,
MCS2L4886ZM,2020-02-12 04:40:59 UTC,,,,,
MXAYEg_BXTE,2020-02-12 04:40:59 UTC,,,,,
avAUxVsdrKM,2020-02-12 04:40:59 UTC,,,,,
XmNlrJNfCR8,2020-02-12 04:40:59 UTC,,,,,
jK6YgMPr8Eg,2020-02-12 04:40:59 UTC,,,,,
N_Q9r0soGng,2019-09-01 21:43:28 UTC,,,,,
VmoBS9AhZIc,2019-06-05 16:31:09 UTC,,,,,
ORRHMl3syDM,2019-06-05 16:31:09 UTC,,,,,
wI63y3LTOM8,2018-07-23 15:45:45 UTC,,,,,
8n338W0yvoM,2017-07-06 20:37:35 UTC,,,,,
iYeAacfttu8,2017-07-06 20:11:32 UTC,,,,,
9LOGjet1lFk,2017-07-06 20:11:22 UTC,,,,,
aZvkHjbwE1w,2017-07-06 20:11:13 UTC,,,,,
jSdkFSg9oW8,2016-07-23 20:50:41 UTC,,,,,
oSSnDeOXTZQ,2016-06-02 04:24:25 UTC,,,,,
